<?xml version="1.0" encoding="utf-8"?>
<!-- Generator: Adobe Illustrator 21.0.0, SVG Export Plug-In . SVG Version: 6.00 Build 0)  -->
<svg version="1.1"
	 id="Layer_1_xA0_Image_1_" inkscape:export-filename="C:\workspace-mango27\ma-dashboards\Custom Dashboards\web\img\logo.png" inkscape:export-xdpi="47.421555" inkscape:export-ydpi="47.421555" inkscape:version="0.91 r13725" sodipodi:docname="logo.svg" xmlns:cc="http://creativecommons.org/ns#" xmlns:dc="http://purl.org/dc/elements/1.1/" xmlns:inkscape="http://www.inkscape.org/namespaces/inkscape" xmlns:rdf="http://www.w3.org/1999/02/22-rdf-syntax-ns#" xmlns:sodipodi="http://sodipodi.sourceforge.net/DTD/sodipodi-0.dtd" xmlns:svg="http://www.w3.org/2000/svg"
	 xmlns="http://www.w3.org/2000/svg" xmlns:xlink="http://www.w3.org/1999/xlink" x="0px" y="0px" viewBox="0 0 379.6 170.7"
	 style="enable-background:new 0 0 379.6 170.7;" xml:space="preserve">
<style type="text/css">
	.st0{fill:#ffffff;}
	.st1{fill:#F57C00;}
</style>
<sodipodi:namedview  bordercolor="#666666" borderopacity="1" fit-margin-bottom="0" fit-margin-left="0" fit-margin-right="0" fit-margin-top="0" gridtolerance="10" guidetolerance="10" id="namedview4" inkscape:current-layer="Layer_1_xA0_Image_1_" inkscape:cx="205.12059" inkscape:cy="80.991979" inkscape:pageopacity="0" inkscape:pageshadow="2" inkscape:window-height="1028" inkscape:window-maximized="1" inkscape:window-width="1920" inkscape:window-x="1912" inkscape:window-y="-8" inkscape:zoom="1.9375525" objecttolerance="10" pagecolor="#ffffff" showgrid="false">
	</sodipodi:namedview>
<g id="text4140">
	<path id="path4191" class="st0" d="M21.2,133.3l5.4,36.6h-9.7l-0.5-6.6H13l-0.6,6.6H2.6l4.8-36.6L21.2,133.3L21.2,133.3z
		 M16.2,156.9c-0.5-4.1-1-9.3-1.4-15.3c-1,7-1.6,12.1-1.8,15.3H16.2z"/>
	<path id="path4193" class="st0" d="M65.3,133.3v24.4c0,2.8-0.1,4.7-0.3,5.8c-0.2,1.1-0.7,2.3-1.6,3.5s-2.1,2.1-3.5,2.7
		c-1.4,0.6-3.2,0.9-5.1,0.9c-2.2,0-4.1-0.4-5.8-1.1c-1.7-0.7-2.9-1.7-3.7-2.8c-0.8-1.2-1.3-2.4-1.5-3.7s-0.2-4-0.2-8.1v-21.6h9.5
		v27.4c0,1.6,0.1,2.6,0.2,3.1c0.2,0.4,0.5,0.7,1.1,0.7s1-0.2,1.2-0.7s0.3-1.7,0.3-3.5v-26.9L65.3,133.3L65.3,133.3z"/>
	<path id="path4195" class="st0" d="M103.6,133.3v7.3H98v29.2h-9.5v-29.2h-5.6v-7.3H103.6z"/>
	<path id="path4197" class="st0" d="M142.9,154.8c0,3.7-0.1,6.3-0.3,7.8s-0.7,2.9-1.6,4.2c-0.9,1.3-2.1,2.2-3.7,2.9
		c-1.6,0.7-3.4,1-5.4,1s-3.7-0.3-5.3-0.9c-1.6-0.6-2.8-1.6-3.7-2.9c-0.9-1.3-1.5-2.7-1.7-4.2s-0.3-4.1-0.3-7.9v-6.3
		c0-3.7,0.1-6.3,0.2-7.8c0.2-1.5,0.7-2.9,1.6-4.2s2.2-2.2,3.7-2.9s3.4-1,5.4-1s3.7,0.3,5.3,1c1.6,0.6,2.8,1.6,3.8,2.9
		c0.9,1.3,1.5,2.7,1.7,4.2s0.3,4.1,0.3,7.9V154.8z M133.4,142.7c0-1.7-0.1-2.8-0.3-3.3s-0.6-0.7-1.2-0.7c-0.5,0-0.9,0.2-1.2,0.6
		c-0.3,0.4-0.4,1.5-0.4,3.4v17.1c0,2.1,0.1,3.4,0.2,3.9c0.2,0.5,0.6,0.7,1.2,0.7c0.6,0,1.1-0.3,1.2-0.9c0.2-0.6,0.3-1.9,0.3-4.1
		v-16.7H133.4z"/>
	<path id="path4199" class="st0" d="M191.3,133.3v36.6H183v-24.7l-3.3,24.7h-5.9l-3.5-24.1v24.1H162v-36.6h12.3
		c0.4,2.2,0.7,4.8,1.2,7.8l1.3,9.3l2.2-17.1L191.3,133.3L191.3,133.3z"/>
	<path id="path4201" class="st0" d="M227,133.3l5.4,36.6h-9.7l-0.5-6.6h-3.4l-0.6,6.6h-9.8l4.8-36.6L227,133.3L227,133.3z
		 M221.9,156.9c-0.5-4.1-1-9.3-1.4-15.3c-1,7-1.6,12.1-1.8,15.3H221.9z"/>
	<path id="path4203" class="st0" d="M268.7,133.3v7.3H263v29.2h-9.5v-29.2h-5.6v-7.3H268.7z"/>
	<path id="path4205" class="st0" d="M295.8,133.3v36.6h-9.5v-36.6L295.8,133.3L295.8,133.3z"/>
	<path id="path4207" class="st0" d="M336.7,154.8c0,3.7-0.1,6.3-0.3,7.8c-0.2,1.5-0.7,2.9-1.6,4.2s-2.1,2.2-3.7,2.9s-3.4,1-5.4,1
		s-3.7-0.3-5.3-0.9c-1.6-0.6-2.8-1.6-3.7-2.9c-0.9-1.3-1.5-2.7-1.7-4.2s-0.3-4.1-0.3-7.9v-6.3c0-3.7,0.1-6.3,0.2-7.8
		c0.2-1.5,0.7-2.9,1.6-4.2s2.2-2.2,3.7-2.9s3.4-1,5.4-1s3.7,0.3,5.3,1c1.6,0.6,2.8,1.6,3.8,2.9c0.9,1.3,1.5,2.7,1.7,4.2
		s0.3,4.1,0.3,7.9V154.8z M327.2,142.7c0-1.7-0.1-2.8-0.3-3.3c-0.2-0.5-0.6-0.7-1.2-0.7c-0.5,0-0.9,0.2-1.2,0.6
		c-0.3,0.4-0.4,1.5-0.4,3.4v17.1c0,2.1,0.1,3.4,0.2,3.9c0.2,0.5,0.6,0.7,1.2,0.7s1.1-0.3,1.2-0.9c0.2-0.6,0.3-1.9,0.3-4.1v-16.7
		H327.2z"/>
	<path id="path4209" class="st0" d="M377,133.3v36.6h-8.3l-4.9-16.6v16.6h-7.9v-36.6h7.9l5.3,16.5v-16.5L377,133.3L377,133.3z"/>
</g>
<g id="text4136">
	<path id="path4180" class="st1" d="M88.8,0v110.7H63.6V36l-10,74.7H35.8l-10.6-73v73H0V0h37.3c1,6.7,2.2,14.5,3.4,23.5l4,28.2
		L51.3,0H88.8z"/>
	<path id="path4182" class="st1" d="M124.2,55.1H98.3V49c0-7,0.8-12.4,2.4-16.2s4.9-7.2,9.8-10.1s11.2-4.4,19-4.4
		c9.3,0,16.4,1.7,21.1,5c4.7,3.3,7.6,7.3,8.5,12.2c1,4.8,1.4,14.7,1.4,29.7v45.5h-26.9v-8.1c-1.7,3.2-3.9,5.7-6.6,7.3
		c-2.6,1.6-5.8,2.4-9.5,2.4c-4.8,0-9.3-1.3-13.3-4s-6-8.7-6-17.8V83c0-6.8,1.1-11.4,3.2-13.9s7.5-5.3,15.9-8.6
		c9.1-3.6,13.9-5.9,14.6-7.2s1-3.7,1-7.5c0-4.7-0.4-7.8-1.1-9.2c-0.7-1.5-1.8-2.2-3.5-2.2c-1.9,0-3,0.6-3.5,1.8s-0.7,4.3-0.7,9.4
		L124.2,55.1L124.2,55.1z M133,67.5c-4.4,3.2-7,5.9-7.7,8.1s-1,5.3-1,9.4c0,4.7,0.3,7.7,0.9,9.1s1.9,2.1,3.7,2.1
		c1.7,0,2.8-0.5,3.3-1.6s0.8-3.9,0.8-8.5L133,67.5L133,67.5z"/>
	<path id="path4184" class="st1" d="M198.2,20l-0.5,8.3c2-3.3,4.4-5.8,7.3-7.5c2.9-1.7,6.3-2.5,10-2.5c4.7,0,8.6,1.1,11.6,3.3
		s4.9,5.1,5.8,8.5c0.9,3.4,1.3,9,1.3,17v63.6h-27.6V47.9c0-6.2-0.2-10-0.6-11.4s-1.5-2.1-3.4-2.1c-2,0-3.2,0.8-3.7,2.4
		c-0.5,1.5-0.8,5.7-0.8,12.6v61.3H170V20H198.2z"/>
	<path id="path4186" class="st1" d="M306.1,20v69.9c0,9.4-0.2,15.5-0.7,18.3c-0.4,2.7-1.9,5.6-4.6,8.7c-2.6,3.1-6.3,5.4-11.1,7
		c-4.7,1.6-10.6,2.5-17.8,2.5c-8.8,0-15.9-1.5-21.2-4.5s-8.1-8.8-8.3-17.6h26.8c0,4,1.5,6,4.4,6c2.1,0,3.5-0.6,4.2-1.8s1-3.8,1-7.7
		V94c-2.4,2.1-4.9,3.8-7.5,4.9s-5.3,1.6-8.2,1.6c-5,0-9.1-1-12.3-3s-5.4-4.6-6.6-7.9c-1.2-3.3-1.8-7.9-1.8-13.9V42.6
		c0-8.6,1.5-14.8,4.6-18.6s7.8-5.7,14.2-5.7c3.5,0,6.6,0.7,9.4,2.1c2.9,1.4,5.4,3.5,7.7,6.4l2-6.8H306.1z M278.4,44
		c0-4.1-0.3-6.8-0.8-7.9c-0.5-1.1-1.5-1.7-3.1-1.7s-2.7,0.7-3.4,2c-0.6,1.3-1,3.8-1,7.7v30.4c0,4.1,0.3,6.7,0.8,7.9
		c0.5,1.2,1.5,1.8,3.1,1.8c1.8,0,3-0.7,3.6-2.2s0.8-4.8,0.8-9.9V44z"/>
	<path id="path4188" class="st1" d="M378.6,51.8V74c0,8.2-0.4,14.2-1.2,18c-0.8,3.8-2.6,7.3-5.3,10.7c-2.7,3.3-6.2,5.7-10.4,7.3
		c-4.2,1.5-9,2.3-14.5,2.3c-6.1,0-11.3-0.7-15.5-2c-4.2-1.4-7.5-3.4-9.9-6.1c-2.3-2.7-4-6-5-9.8c-1-3.9-1.5-9.7-1.5-17.4V53.8
		c0-8.4,0.9-15,2.7-19.8s5.1-8.5,9.8-11.4s10.8-4.3,18.2-4.3c6.2,0,11.5,0.9,15.9,2.8c4.5,1.8,7.9,4.2,10.3,7.2s4.1,6,4.9,9.2
		C378.1,40.6,378.6,45.4,378.6,51.8z M351,45c0-4.6-0.3-7.6-0.8-8.8s-1.6-1.8-3.2-1.8s-2.7,0.6-3.3,1.8c-0.5,1.2-0.8,4.1-0.8,8.8
		v40.9c0,4.3,0.3,7.1,0.8,8.4s1.6,1.9,3.2,1.9s2.7-0.6,3.2-1.8c0.5-1.2,0.8-3.7,0.8-7.7L351,45L351,45z"/>
</g>
</svg>
